{"page":2,"per_page":6,"total":12,"total_pages":2,"data":[{"id":7,"name":"sand dollar","year":2006,"color":"#DECDBE","pantone_value":"13-1106"},{"id":8,"name":"chili pepper","year":2007,"color":"#9B1B30","pantone_value":"19-1557"},{"id":9,"name":"blue iris","year":2008,"color":"#5A5B9F","pantone_value":"18-3943"},{"id":10,"name":"mimosa","year":2009,"color":"#F0C05A","pantone_value":"14-0848"},{"id":11,"name":"turquoise","year":2010,"color":"#45B5AA","pantone_value":"15-5519"},{"id":12,"name":"honeysuckle","year":2011,"color":"#D94F70","pantone_value":"18-2120"}],"support":{"url":"https://reqres.in/#support-heading","text":"To keep ReqRes free, contributions towards server costs are appreciated!"}}